Magnetic Pickup/test010_002.csv

X,CH1,Start,Increment,
Sequence,Volt,Volt,0.000000e-03,7.181117403061778e-05
0,-0.08000,,
1,0.12000,,
2,0.08000,,
3,-0.04000,,
4,0.08000,,
5,-0.04000,,
6,0.00000,,
7,0.08000,,
8,0.00000,,
9,0.08000,,
10,0.08000,,
11,-0.04000,,
12,0.08000,,
13,-0.04000,,
14,0.08000,,
15,-0.04000,,
16,0.08000,,
17,-0.04000,,
18,0.08000,,
19,-0.04000,,
20,-0.04000,,
21,0.08000,,
22,0.08000,,
23,-0.04000,,
24,0.08000,,
25,-0.04000,,
26,0.08000,,
27,-0.04000,,
28,-0.04000,,
29,0.08000,,
30,0.08000,,
31,-0.04000,,
32,0.08000,,
33,-0.04000,,
34,0.08000,,
35,-0.04000,,
36,0.08000,,
37,-0.04000,,
38,0.08000,,
39,-0.04000,,
40,0.08000,,
41,-0.04000,,
42,0.08000,,
43,-0.04000,,
44,-0.04000,,
45,0.08000,,
46,0.08000,,
47,-0.04000,,
48,0.08000,,
49,-0.04000,,
50,0.08000,,
51,-0.04000,,
52,-0.04000,,
53,0.08000,,
54,0.08000,,
55,-0.04000,,
56,0.08000,,
57,-0.04000,,
58,-0.04000,,
59,0.08000,,
60,0.08000,,
61,-0.04000,,
62,0.08000,,
63,-0.04000,,
64,0.08000,,
65,-0.04000,,
66,0.08000,,
67,-0.04000,,
68,0.08000,,
69,-0.04000,,
70,0.08000,,
71,-0.04000,,
72,-0.04000,,
73,0.08000,,
74,-0.04000,,
75,0.08000,,
76,-0.04000,,
77,0.08000,,
78,0.08000,,
79,-0.04000,,
80,-0.04000,,
81,0.08000,,
82,-0.04000,,
83,0.08000,,
84,0.08000,,
85,0.00000,,
86,0.00000,,
87,0.08000,,
88,0.00000,,
89,0.04000,,
90,0.00000,,
91,0.08000,,
92,0.00000,,
93,0.08000,,
94,0.12000,,
95,-0.04000,,
96,0.00000,,
97,0.08000,,
98,0.00000,,
99,0.08000,,
100,0.00000,,
101,0.08000,,
102,0.00000,,
103,0.08000,,
104,0.00000,,
105,0.04000,,
106,0.00000,,
107,0.08000,,
108,0.00000,,
109,0.08000,,
110,0.08000,,
111,0.00000,,
112,0.00000,,
113,0.08000,,
114,0.00000,,
115,0.08000,,
116,0.08000,,
117,0.00000,,
118,0.00000,,
119,0.08000,,
120,0.00000,,
121,0.08000,,
122,0.08000,,
123,0.00000,,
124,0.08000,,
125,0.00000,,
126,0.00000,,
127,0.08000,,
128,0.00000,,
129,0.08000,,
130,0.00000,,
131,0.08000,,
132,0.00000,,
133,0.08000,,
134,0.00000,,
135,0.08000,,
136,0.00000,,
137,0.08000,,
138,0.00000,,
139,0.08000,,
140,0.08000,,
141,-0.04000,,
142,0.08000,,
143,0.00000,,
144,0.08000,,
145,0.00000,,
146,0.00000,,
147,0.08000,,
148,0.08000,,
149,0.00000,,
150,0.00000,,
151,0.08000,,
152,0.08000,,
153,0.00000,,
154,0.08000,,
155,0.00000,,
156,0.08000,,
157,0.00000,,
158,0.00000,,
159,0.08000,,
160,0.04000,,
161,0.00000,,
162,0.04000,,
163,0.00000,,
164,0.00000,,
165,0.04000,,
166,0.04000,,
167,0.00000,,
168,0.00000,,
169,0.12000,,
170,0.00000,,
171,0.12000,,
172,0.04000,,
173,0.00000,,
174,0.00000,,
175,0.04000,,
176,0.00000,,
177,0.08000,,
178,0.00000,,
179,0.12000,,
180,-0.04000,,
181,0.08000,,
182,-0.04000,,
183,0.08000,,
184,0.00000,,
185,0.08000,,
186,0.00000,,
187,0.04000,,
188,-0.04000,,
189,0.08000,,
190,0.08000,,
191,-0.04000,,
192,0.08000,,
193,-0.04000,,
194,0.08000,,
195,-0.04000,,
196,-0.04000,,
197,0.08000,,
198,-0.08000,,
199,0.04000,,
200,-0.08000,,
201,0.04000,,
202,0.04000,,
203,-0.12000,,
204,0.00000,,
205,-0.12000,,
206,-0.04000,,
207,-0.16000,,
208,-0.04000,,
209,-0.20000,,
210,-0.12000,,
211,-0.24000,,
212,-0.20000,,
213,-0.48000,,
214,-0.48000,,
215,-1.04000,,
216,-1.04000,,
217,-1.92000,,
218,-1.84000,,
219,-2.72000,,
220,-2.76000,,
221,-3.20000,,
222,-3.20000,,
223,-2.64000,,
224,-2.72000,,
225,-2.00000,,
226,-2.00000,,
227,-1.40000,,
228,-1.40000,,
229,-0.88000,,
230,-1.00000,,
231,-0.56000,,
232,-0.60000,,
233,-0.24000,,
234,-0.32000,,
235,0.04000,,
236,0.00000,,
237,0.32000,,
238,0.24000,,
239,0.64000,,
240,0.56000,,
241,1.04000,,
242,1.00000,,
243,1.60000,,
244,1.52000,,
245,2.36000,,
246,2.28000,,
247,2.88000,,
248,2.84000,,
249,3.00000,,
250,2.92000,,
251,2.40000,,
252,2.44000,,
253,1.60000,,
254,1.60000,,
255,0.96000,,
256,1.00000,,
257,0.60000,,
258,0.68000,,
259,0.40000,,
260,0.48000,,
261,0.28000,,
262,0.36000,,
263,0.20000,,
264,0.28000,,
265,0.16000,,
266,0.12000,,
267,0.24000,,
268,0.20000,,
269,0.08000,,
270,0.16000,,
271,0.04000,,
272,0.04000,,
273,0.12000,,
274,0.04000,,
275,0.12000,,
276,0.00000,,
277,0.12000,,
278,0.00000,,
279,0.12000,,
280,0.12000,,
281,0.00000,,
282,0.00000,,
283,0.12000,,
284,0.00000,,
285,0.12000,,
286,0.00000,,
287,0.12000,,
288,0.00000,,
289,0.04000,,
290,0.04000,,
291,0.00000,,
292,0.00000,,
293,0.04000,,
294,0.00000,,
295,0.04000,,
296,0.00000,,
297,0.08000,,
298,0.00000,,
299,0.04000,,
300,0.00000,,
301,0.04000,,
302,0.04000,,
303,0.00000,,
304,0.00000,,
305,0.04000,,
306,0.04000,,
307,0.00000,,
308,0.04000,,
309,0.00000,,
310,0.00000,,
311,0.04000,,
312,0.00000,,
313,0.04000,,
314,0.04000,,
315,0.00000,,
316,0.00000,,
317,0.08000,,
318,0.00000,,
319,0.08000,,
320,0.00000,,
321,0.08000,,
322,0.04000,,
323,0.00000,,
324,0.00000,,
325,0.08000,,
326,0.04000,,
327,0.00000,,
328,0.00000,,
329,0.04000,,
330,0.00000,,
331,0.12000,,
332,0.00000,,
333,0.12000,,
334,0.00000,,
335,0.08000,,
336,0.00000,,
337,0.12000,,
338,0.00000,,
339,0.08000,,
340,0.00000,,
341,0.12000,,
342,0.00000,,
343,0.12000,,
344,0.00000,,
345,0.12000,,
346,0.00000,,
347,0.12000,,
348,0.00000,,
349,0.12000,,
350,0.00000,,
351,0.12000,,
352,0.00000,,
353,0.12000,,
354,0.00000,,
355,0.12000,,
356,0.12000,,
357,0.00000,,
358,0.00000,,
359,0.12000,,
360,0.00000,,
361,0.12000,,
362,0.00000,,
363,0.12000,,
364,0.00000,,
365,0.08000,,
366,0.00000,,
367,0.08000,,
368,0.00000,,
369,0.08000,,
370,0.00000,,
371,0.08000,,
372,0.00000,,
373,0.08000,,
374,0.08000,,
375,-0.04000,,
376,0.08000,,
377,-0.04000,,
378,0.08000,,
379,-0.04000,,
380,0.08000,,
381,-0.04000,,
382,0.08000,,
383,-0.04000,,
384,0.00000,,
385,0.08000,,
386,0.00000,,
387,0.08000,,
388,0.08000,,
389,0.00000,,
390,0.00000,,
391,0.12000,,
392,0.08000,,
393,-0.04000,,
394,-0.04000,,
395,0.08000,,
396,-0.04000,,
397,0.08000,,
398,0.08000,,
399,-0.04000,,
400,0.00000,,
401,0.08000,,
402,0.00000,,
403,0.08000,,
404,0.00000,,
405,0.08000,,
406,0.00000,,
407,0.08000,,
408,0.08000,,
409,0.00000,,
410,0.08000,,
411,-0.04000,,
412,0.08000,,
413,-0.04000,,
414,0.08000,,
415,-0.04000,,
416,-0.04000,,
417,0.08000,,
418,0.08000,,
419,0.00000,,
420,0.08000,,
421,0.00000,,
422,0.08000,,
423,-0.04000,,
424,-0.04000,,
425,0.12000,,
426,0.08000,,
427,0.00000,,
428,0.08000,,
429,0.00000,,
430,0.08000,,
431,-0.04000,,
432,0.08000,,
433,-0.04000,,
434,-0.04000,,
435,0.08000,,
436,0.08000,,
437,-0.04000,,
438,0.08000,,
439,0.00000,,
440,0.08000,,
441,0.00000,,
442,0.08000,,
443,0.00000,,
444,0.00000,,
445,0.08000,,
446,0.08000,,
447,0.00000,,
448,0.00000,,
449,0.08000,,
450,0.00000,,
451,0.08000,,
452,0.00000,,
453,0.08000,,
454,0.00000,,
455,0.08000,,
456,0.00000,,
457,0.08000,,
458,0.00000,,
459,0.08000,,
460,0.08000,,
461,0.00000,,
462,0.08000,,
463,0.00000,,
464,0.08000,,
465,0.00000,,
466,0.00000,,
467,0.08000,,
468,0.08000,,
469,0.00000,,
470,0.08000,,
471,-0.04000,,
472,0.08000,,
473,-0.04000,,
474,-0.04000,,
475,0.08000,,
476,-0.04000,,
477,0.08000,,
478,-0.04000,,
479,0.08000,,
480,-0.04000,,
481,0.04000,,
482,-0.04000,,
483,0.08000,,
484,0.00000,,
485,0.08000,,
486,0.00000,,
487,0.08000,,
488,0.08000,,
489,0.00000,,
490,0.00000,,
491,0.08000,,
492,0.08000,,
493,0.00000,,
494,0.00000,,
495,0.08000,,
496,0.08000,,
497,-0.04000,,
498,0.08000,,
499,-0.04000,,
500,0.08000,,
501,-0.04000,,
502,0.08000,,
503,0.00000,,
504,0.08000,,
505,0.00000,,
506,0.08000,,
507,-0.04000,,
508,0.08000,,
509,-0.04000,,
510,0.00000,,
511,0.08000,,
512,0.00000,,
513,0.08000,,
514,0.08000,,
515,0.00000,,
516,-0.04000,,
517,0.12000,,
518,-0.04000,,
519,0.12000,,
520,0.08000,,
521,-0.04000,,
522,0.00000,,
523,0.08000,,
524,0.00000,,
525,0.08000,,
526,0.08000,,
527,0.00000,,
528,0.00000,,
529,0.08000,,
530,0.00000,,
531,0.08000,,
532,0.00000,,
533,0.08000,,
534,0.00000,,
535,0.12000,,
536,0.00000,,
537,0.12000,,
538,0.00000,,
539,0.12000,,
540,0.00000,,
541,0.12000,,
542,0.00000,,
543,0.12000,,
544,0.00000,,
545,0.04000,,
546,0.00000,,
547,0.08000,,
548,0.00000,,
549,0.08000,,
550,0.00000,,
551,0.08000,,
552,0.08000,,
553,-0.04000,,
554,0.08000,,
555,-0.04000,,
556,0.08000,,
557,-0.04000,,
558,0.08000,,
559,-0.04000,,
560,0.08000,,
561,-0.04000,,
562,-0.04000,,
563,0.04000,,
564,0.04000,,
565,-0.08000,,
566,0.04000,,
567,-0.12000,,
568,-0.12000,,
569,0.00000,,
570,-0.16000,,
571,0.00000,,
572,-0.08000,,
573,-0.20000,,
574,-0.12000,,
575,-0.32000,,
576,-0.28000,,
577,-0.60000,,
578,-0.56000,,
579,-1.16000,,
580,-1.16000,,
581,-2.04000,,
582,-2.04000,,
583,-2.84000,,
584,-2.84000,,
585,-3.20000,,
586,-3.16000,,
587,-2.56000,,
588,-2.60000,,
589,-1.84000,,
590,-1.92000,,
591,-1.32000,,
592,-1.32000,,
593,-0.88000,,
594,-0.92000,,
595,-0.52000,,
596,-0.56000,,
597,-0.16000,,
598,-0.24000,,
599,0.04000,,
600,0.04000,,
601,0.36000,,
602,0.32000,,
603,0.68000,,
604,0.64000,,
605,1.12000,,
606,1.08000,,
607,1.68000,,
608,1.68000,,
609,2.48000,,
610,2.40000,,
611,2.92000,,
612,2.96000,,
613,2.76000,,
614,2.88000,,
615,2.28000,,
616,2.28000,,
617,1.44000,,
618,1.48000,,
619,0.88000,,
620,0.92000,,
621,0.56000,,
622,0.60000,,
623,0.36000,,
624,0.44000,,
625,0.28000,,
626,0.32000,,
627,0.20000,,
628,0.28000,,
629,0.12000,,
630,0.24000,,
631,0.08000,,
632,0.08000,,
633,0.16000,,
634,0.16000,,
635,0.04000,,
636,0.08000,,
637,0.04000,,
638,0.04000,,
639,0.12000,,
640,0.12000,,
641,0.00000,,
642,0.00000,,
643,0.12000,,
644,0.00000,,
645,0.12000,,
646,0.00000,,
647,0.04000,,
648,0.00000,,
649,0.04000,,
650,0.04000,,
651,0.00000,,
652,0.00000,,
653,0.04000,,
654,0.00000,,
655,0.08000,,
656,0.00000,,
657,0.12000,,
658,0.00000,,
659,0.12000,,
660,0.00000,,
661,0.12000,,
662,0.00000,,
663,0.08000,,
664,-0.04000,,
665,0.12000,,
666,0.00000,,
667,0.04000,,
668,0.00000,,
669,0.12000,,
670,0.00000,,
671,0.12000,,
672,0.00000,,
673,0.08000,,
674,0.00000,,
675,0.08000,,
676,0.08000,,
677,0.00000,,
678,0.04000,,
679,0.00000,,
680,0.00000,,
681,0.08000,,
682,0.00000,,
683,0.12000,,
684,0.00000,,
685,0.12000,,
686,0.00000,,
687,0.12000,,
688,0.00000,,
689,0.12000,,
690,0.00000,,
691,0.12000,,
692,0.00000,,
693,0.12000,,
694,0.00000,,
695,0.08000,,
696,0.00000,,
697,0.12000,,
698,0.00000,,
699,0.12000,,
700,0.00000,,
701,0.12000,,
702,0.00000,,
703,0.12000,,
704,0.00000,,
705,0.12000,,
706,0.00000,,
707,0.12000,,
708,0.12000,,
709,0.00000,,
710,0.20000,,
711,-0.08000,,
712,0.00000,,
713,0.12000,,
714,0.00000,,
715,0.12000,,
716,-0.04000,,
717,0.04000,,
718,0.00000,,
719,0.12000,,
720,0.00000,,
721,0.12000,,
722,0.00000,,
723,0.12000,,
724,0.00000,,
725,0.12000,,
726,0.00000,,
727,0.12000,,
728,0.00000,,
729,0.12000,,
730,0.00000,,
731,0.12000,,
732,0.00000,,
733,0.04000,,
734,0.00000,,
735,0.08000,,
736,0.00000,,
737,0.08000,,
738,0.00000,,
739,0.08000,,
740,0.08000,,
741,0.00000,,
742,0.00000,,
743,0.08000,,
744,0.00000,,
745,0.08000,,
746,0.00000,,
747,0.08000,,
748,0.00000,,
749,0.08000,,
750,0.00000,,
751,0.08000,,
752,0.08000,,
753,-0.04000,,
754,0.08000,,
755,-0.04000,,
756,-0.04000,,
757,0.12000,,
758,-0.04000,,
759,0.16000,,
760,0.08000,,
761,-0.04000,,
762,0.00000,,
763,0.08000,,
764,0.08000,,
765,0.00000,,
766,0.08000,,
767,0.00000,,
768,0.08000,,
769,0.00000,,
770,0.00000,,
771,0.08000,,
772,0.00000,,
773,0.08000,,
774,0.08000,,
775,0.00000,,
776,0.08000,,
777,0.00000,,
778,0.08000,,
779,0.00000,,
780,0.08000,,
781,0.00000,,
782,0.08000,,
783,0.00000,,
784,0.00000,,
785,0.08000,,
786,0.00000,,
787,0.08000,,
788,0.08000,,
789,0.00000,,
790,0.00000,,
791,0.08000,,
792,0.00000,,
793,0.08000,,
794,0.08000,,
795,0.00000,,
796,0.00000,,
797,0.08000,,
798,0.00000,,
799,0.08000,,
800,0.00000,,
801,0.08000,,
802,0.08000,,
803,-0.04000,,
804,0.08000,,
805,-0.04000,,
806,0.00000,,
807,0.08000,,
808,0.08000,,
809,-0.04000,,
810,-0.04000,,
811,0.08000,,
812,0.08000,,
813,-0.04000,,
814,0.08000,,
815,-0.04000,,
816,0.00000,,
817,0.08000,,
818,0.08000,,
819,-0.04000,,
820,0.08000,,
821,0.00000,,
822,0.08000,,
823,0.00000,,
824,0.08000,,
825,0.00000,,
826,0.08000,,
827,0.00000,,
828,0.00000,,
829,0.08000,,
830,0.08000,,
831,-0.04000,,
832,0.08000,,
833,-0.04000,,
834,0.08000,,
835,-0.04000,,
836,0.08000,,
837,-0.04000,,
838,0.08000,,
839,-0.04000,,
840,0.08000,,
841,0.00000,,
842,0.00000,,
843,0.08000,,
844,0.00000,,
845,0.08000,,
846,0.08000,,
847,0.00000,,
848,-0.04000,,
849,0.08000,,
850,-0.04000,,
851,0.12000,,
852,-0.08000,,
853,0.08000,,
854,0.08000,,
855,-0.04000,,
856,-0.04000,,
857,0.12000,,
858,-0.04000,,
859,0.08000,,
860,0.08000,,
861,-0.04000,,
862,0.08000,,
863,-0.04000,,
864,0.00000,,
865,0.08000,,
866,0.00000,,
867,0.08000,,
868,0.08000,,
869,-0.04000,,
870,0.08000,,
871,-0.04000,,
872,0.08000,,
873,-0.04000,,
874,0.08000,,
875,-0.04000,,
876,0.08000,,
877,0.00000,,
878,0.00000,,
879,0.08000,,
880,0.00000,,
881,0.12000,,
882,0.00000,,
883,0.12000,,
884,0.00000,,
885,0.12000,,
886,0.00000,,
887,0.12000,,
888,0.00000,,
889,0.12000,,
890,0.00000,,
891,0.08000,,
892,0.00000,,
893,0.12000,,
894,0.12000,,
895,0.00000,,
896,-0.04000,,
897,0.12000,,
898,0.00000,,
899,0.08000,,
900,0.00000,,
901,0.08000,,
902,0.00000,,
903,0.08000,,
904,0.00000,,
905,0.08000,,
906,0.00000,,
907,0.04000,,
908,0.00000,,
909,0.08000,,
910,0.00000,,
911,0.08000,,
912,0.00000,,
913,0.08000,,
914,0.00000,,
915,0.08000,,
916,0.00000,,
917,0.08000,,
918,0.00000,,
919,0.08000,,
920,0.08000,,
921,0.00000,,
922,0.08000,,
923,-0.04000,,
924,-0.04000,,
925,0.00000,,
926,-0.04000,,
927,0.04000,,
928,0.04000,,
929,-0.08000,,
930,-0.08000,,
931,0.00000,,
932,0.00000,,
933,-0.12000,,
934,-0.04000,,
935,-0.16000,,
936,-0.08000,,
937,-0.20000,,
938,-0.12000,,
939,-0.28000,,
940,-0.20000,,
941,-0.56000,,
942,-0.52000,,
943,-1.20000,,
944,-1.16000,,
945,-2.00000,,
946,-2.04000,,
947,-2.88000,,
948,-2.88000,,
949,-3.20000,,
950,-3.20000,,
951,-2.56000,,
952,-2.64000,,
953,-1.88000,,
954,-1.96000,,
955,-1.32000,,
956,-1.36000,,
957,-0.88000,,
958,-0.96000,,
959,-0.52000,,
960,-0.56000,,
961,-0.24000,,
962,-0.28000,,
963,0.08000,,
964,0.00000,,
965,0.36000,,
966,0.28000,,
967,0.68000,,
968,0.60000,,
969,1.08000,,
970,1.08000,,
971,1.68000,,
972,1.60000,,
973,2.44000,,
974,2.36000,,
975,2.88000,,
976,2.92000,,
977,2.72000,,
978,2.80000,,
979,2.20000,,
980,2.20000,,
981,1.40000,,
982,1.40000,,
983,0.88000,,
984,0.88000,,
985,0.52000,,
986,0.60000,,
987,0.36000,,
988,0.44000,,
989,0.24000,,
990,0.32000,,
991,0.20000,,
992,0.24000,,
993,0.12000,,
994,0.24000,,
995,0.08000,,
996,0.20000,,
997,0.04000,,
998,0.16000,,
999,0.04000,,
1000,0.16000,,
1001,0.00000,,
1002,0.04000,,
1003,0.12000,,
1004,0.04000,,
1005,0.12000,,
1006,0.12000,,
1007,0.00000,,
1008,0.12000,,
1009,0.00000,,
1010,0.00000,,
1011,0.12000,,
1012,0.00000,,
1013,0.08000,,
1014,0.00000,,
1015,0.08000,,
1016,0.00000,,
1017,0.12000,,
1018,0.00000,,
1019,0.08000,,
1020,0.00000,,
1021,0.12000,,
1022,0.00000,,
1023,0.12000,,
1024,0.00000,,
1025,0.12000,,
1026,0.00000,,
1027,0.12000,,
1028,0.00000,,
1029,0.12000,,
1030,0.00000,,
1031,0.12000,,
1032,0.00000,,
1033,0.12000,,
1034,0.00000,,
1035,0.12000,,
1036,0.12000,,
1037,-0.04000,,
1038,-0.04000,,
1039,0.12000,,
1040,0.12000,,
1041,0.00000,,
1042,0.00000,,
1043,0.12000,,
1044,0.00000,,
1045,0.12000,,
1046,0.00000,,
1047,0.12000,,
1048,0.00000,,
1049,0.12000,,
1050,0.00000,,
1051,0.08000,,
1052,0.00000,,
1053,0.12000,,
1054,0.00000,,
1055,0.12000,,
1056,0.12000,,
1057,-0.04000,,
1058,0.00000,,
1059,0.08000,,
1060,0.00000,,
1061,0.12000,,
1062,0.00000,,
1063,0.12000,,
1064,0.00000,,
1065,0.08000,,
1066,0.00000,,
1067,0.12000,,
1068,0.00000,,
1069,0.12000,,
1070,0.00000,,
1071,0.08000,,
1072,0.00000,,
1073,0.04000,,
1074,0.00000,,
1075,0.04000,,
1076,0.00000,,
1077,0.12000,,
1078,0.00000,,
1079,0.12000,,
1080,0.04000,,
1081,0.00000,,
1082,0.00000,,
1083,0.12000,,
1084,0.00000,,
1085,0.12000,,
1086,0.00000,,
1087,0.04000,,
1088,0.00000,,
1089,0.08000,,
1090,-0.04000,,
1091,0.12000,,
1092,0.12000,,
1093,-0.04000,,
1094,0.08000,,
1095,-0.04000,,
1096,0.08000,,
1097,0.00000,,
1098,0.08000,,
1099,0.00000,,
1100,0.00000,,
1101,0.08000,,
1102,0.00000,,
1103,0.08000,,
1104,0.00000,,
1105,0.08000,,
1106,0.08000,,
1107,0.00000,,
1108,0.08000,,
1109,-0.04000,,
1110,0.08000,,
1111,0.00000,,
1112,0.08000,,
1113,0.00000,,
1114,0.08000,,
1115,0.00000,,
1116,0.08000,,
1117,0.00000,,
1118,0.08000,,
1119,-0.04000,,
1120,0.08000,,
1121,0.00000,,
1122,0.08000,,
1123,0.00000,,
1124,0.00000,,
1125,0.08000,,
1126,0.08000,,
1127,0.00000,,
1128,0.08000,,
1129,0.00000,,
1130,0.08000,,
1131,0.00000,,
1132,0.08000,,
1133,0.00000,,
1134,0.08000,,
1135,0.00000,,
1136,0.08000,,
1137,-0.04000,,
1138,0.08000,,
1139,-0.04000,,
1140,0.08000,,
1141,-0.04000,,
1142,0.08000,,
1143,0.00000,,
1144,0.08000,,
1145,0.00000,,
1146,0.08000,,
1147,0.00000,,
1148,0.08000,,
1149,0.00000,,
1150,0.08000,,
1151,0.00000,,
1152,0.00000,,
1153,0.08000,,
1154,0.00000,,
1155,0.08000,,
1156,0.00000,,
1157,0.08000,,
1158,0.08000,,
1159,-0.04000,,
1160,0.08000,,
1161,-0.04000,,
1162,0.08000,,
1163,-0.04000,,
1164,0.08000,,
1165,-0.04000,,
1166,0.08000,,
1167,-0.04000,,
1168,0.08000,,
1169,-0.04000,,
1170,0.08000,,
1171,-0.04000,,
1172,0.08000,,
1173,-0.04000,,
1174,-0.04000,,
1175,0.08000,,
1176,0.08000,,
1177,-0.04000,,
1178,0.08000,,
1179,-0.04000,,
1180,-0.04000,,
1181,0.12000,,
1182,0.00000,,
1183,0.08000,,
1184,0.00000,,
1185,0.08000,,
1186,0.00000,,
1187,0.08000,,
1188,0.04000,,
1189,0.00000,,
1190,0.12000,,
1191,-0.04000,,
1192,0.08000,,
1193,0.00000,,
1194,0.00000,,
1195,0.08000,,
1196,0.08000,,
1197,-0.04000,,
1198,0.08000,,
1199,-0.04000,,
