Magnetic Pickup/test010_003.csv

X,CH1,Start,Increment,
Sequence,Volt,Volt,0.000000e-03,8.834358475781367e-05
0,0.16000,,
1,0.00000,,
2,0.16000,,
3,0.00000,,
4,0.08000,,
5,0.00000,,
6,0.08000,,
7,0.00000,,
8,0.00000,,
9,0.08000,,
10,0.00000,,
11,0.08000,,
12,0.00000,,
13,0.08000,,
14,0.08000,,
15,-0.08000,,
16,0.08000,,
17,0.00000,,
18,-0.08000,,
19,0.16000,,
20,-0.08000,,
21,0.08000,,
22,-0.08000,,
23,0.08000,,
24,0.08000,,
25,-0.08000,,
26,0.08000,,
27,-0.08000,,
28,-0.08000,,
29,0.08000,,
30,-0.08000,,
31,0.08000,,
32,-0.08000,,
33,0.08000,,
34,0.08000,,
35,-0.16000,,
36,-0.08000,,
37,0.08000,,
38,-0.08000,,
39,0.08000,,
40,-0.08000,,
41,0.08000,,
42,-0.08000,,
43,0.08000,,
44,-0.08000,,
45,0.08000,,
46,-0.08000,,
47,0.08000,,
48,-0.08000,,
49,0.08000,,
50,0.08000,,
51,-0.08000,,
52,0.08000,,
53,-0.08000,,
54,-0.08000,,
55,0.08000,,
56,-0.08000,,
57,0.08000,,
58,0.08000,,
59,-0.08000,,
60,0.00000,,
61,0.08000,,
62,0.00000,,
63,0.08000,,
64,0.00000,,
65,0.08000,,
66,0.08000,,
67,-0.08000,,
68,0.00000,,
69,0.08000,,
70,0.08000,,
71,-0.08000,,
72,0.08000,,
73,-0.08000,,
74,0.08000,,
75,0.00000,,
76,0.00000,,
77,0.08000,,
78,0.08000,,
79,-0.08000,,
80,-0.08000,,
81,0.08000,,
82,-0.08000,,
83,0.08000,,
84,0.08000,,
85,-0.08000,,
86,-0.08000,,
87,0.08000,,
88,0.08000,,
89,-0.08000,,
90,0.08000,,
91,-0.08000,,
92,-0.08000,,
93,0.08000,,
94,-0.08000,,
95,0.08000,,
96,0.00000,,
97,-0.16000,,
98,0.00000,,
99,-0.24000,,
100,-0.16000,,
101,-0.64000,,
102,-0.64000,,
103,-3.76000,,
104,-4.64000,,
105,-3.12000,,
106,-3.20000,,
107,-1.04000,,
108,-1.12000,,
109,0.24000,,
110,0.16000,,
111,2.00000,,
112,1.92000,,
113,4.24000,,
114,4.16000,,
115,1.76000,,
116,1.84000,,
117,0.56000,,
118,0.64000,,
119,0.16000,,
120,0.32000,,
121,0.08000,,
122,0.16000,,
123,0.00000,,
124,0.16000,,
125,0.00000,,
126,0.00000,,
127,0.16000,,
128,0.00000,,
129,0.08000,,
130,0.08000,,
131,-0.08000,,
132,0.08000,,
133,0.00000,,
134,0.08000,,
135,0.00000,,
136,0.08000,,
137,-0.08000,,
138,-0.08000,,
139,0.08000,,
140,0.08000,,
141,-0.08000,,
142,0.00000,,
143,0.08000,,
144,0.08000,,
145,-0.08000,,
146,-0.08000,,
147,0.08000,,
148,0.08000,,
149,0.00000,,
150,0.00000,,
151,0.08000,,
152,0.08000,,
153,-0.08000,,
154,-0.08000,,
155,0.08000,,
156,-0.08000,,
157,0.08000,,
158,-0.08000,,
159,0.08000,,
160,0.08000,,
161,-0.08000,,
162,0.08000,,
163,-0.08000,,
164,-0.08000,,
165,0.08000,,
166,-0.08000,,
167,0.08000,,
168,-0.08000,,
169,0.08000,,
170,-0.08000,,
171,0.08000,,
172,-0.08000,,
173,0.08000,,
174,-0.08000,,
175,0.08000,,
176,-0.08000,,
177,0.08000,,
178,-0.08000,,
179,0.08000,,
180,-0.08000,,
181,0.08000,,
182,0.00000,,
183,0.08000,,
184,0.08000,,
185,-0.08000,,
186,-0.08000,,
187,0.08000,,
188,0.08000,,
189,-0.08000,,
190,-0.08000,,
191,0.08000,,
192,-0.08000,,
193,0.08000,,
194,-0.08000,,
195,0.16000,,
196,0.08000,,
197,-0.08000,,
198,-0.08000,,
199,0.08000,,
200,-0.08000,,
201,0.08000,,
202,0.08000,,
203,-0.08000,,
204,0.08000,,
205,-0.08000,,
206,-0.08000,,
207,0.08000,,
208,-0.08000,,
209,0.08000,,
210,0.08000,,
211,-0.08000,,
212,0.08000,,
213,-0.08000,,
214,-0.08000,,
215,0.08000,,
216,0.00000,,
217,-0.08000,,
218,-0.08000,,
219,0.08000,,
220,0.00000,,
221,-0.24000,,
222,-0.08000,,
223,-0.40000,,
224,-0.32000,,
225,-2.40000,,
226,-2.40000,,
227,-4.64000,,
228,-4.24000,,
229,-1.68000,,
230,-1.76000,,
231,-0.24000,,
232,-0.32000,,
233,1.12000,,
234,1.04000,,
235,3.76000,,
236,4.16000,,
237,2.80000,,
238,2.88000,,
239,0.80000,,
240,0.88000,,
241,0.32000,,
242,0.40000,,
243,0.08000,,
244,0.24000,,
245,0.00000,,
246,0.16000,,
247,0.00000,,
248,0.00000,,
249,0.08000,,
250,0.00000,,
251,0.16000,,
252,0.00000,,
253,0.08000,,
254,0.00000,,
255,0.08000,,
256,0.00000,,
257,0.08000,,
258,-0.08000,,
259,0.16000,,
260,0.08000,,
261,0.00000,,
262,0.08000,,
263,-0.08000,,
264,-0.08000,,
265,0.08000,,
266,0.00000,,
267,0.08000,,
268,0.08000,,
269,-0.08000,,
270,0.08000,,
271,-0.08000,,
272,0.08000,,
273,-0.08000,,
274,0.08000,,
275,-0.08000,,
276,-0.08000,,
277,0.16000,,
278,-0.08000,,
279,0.08000,,
280,-0.08000,,
281,0.08000,,
282,0.08000,,
283,-0.08000,,
284,-0.08000,,
285,0.08000,,
286,0.08000,,
287,-0.08000,,
288,-0.08000,,
289,0.08000,,
290,0.08000,,
291,-0.08000,,
292,0.08000,,
293,-0.08000,,
294,0.08000,,
295,-0.08000,,
296,0.08000,,
297,-0.08000,,
298,0.00000,,
299,0.08000,,
300,0.08000,,
301,-0.08000,,
302,0.08000,,
303,-0.08000,,
304,0.08000,,
305,-0.08000,,
306,-0.08000,,
307,0.16000,,
308,-0.08000,,
309,0.08000,,
310,0.00000,,
311,0.08000,,
312,0.00000,,
313,0.08000,,
314,0.08000,,
315,-0.08000,,
316,0.08000,,
317,-0.08000,,
318,-0.08000,,
319,0.08000,,
320,0.08000,,
321,-0.08000,,
322,0.08000,,
323,-0.08000,,
324,-0.08000,,
325,0.08000,,
326,-0.08000,,
327,0.08000,,
328,0.08000,,
329,0.00000,,
330,0.08000,,
331,0.00000,,
332,-0.08000,,
333,0.16000,,
334,0.08000,,
335,-0.08000,,
336,-0.08000,,
337,0.08000,,
338,-0.08000,,
339,0.08000,,
340,0.08000,,
341,-0.08000,,
342,0.00000,,
343,-0.16000,,
344,-0.08000,,
345,-0.32000,,
346,-0.16000,,
347,-1.44000,,
348,-1.44000,,
349,-4.64000,,
350,-4.72000,,
351,-2.32000,,
352,-2.40000,,
353,-0.64000,,
354,-0.64000,,
355,0.72000,,
356,0.56000,,
357,2.96000,,
358,2.96000,,
359,4.16000,,
360,3.60000,,
361,1.12000,,
362,1.12000,,
363,0.40000,,
364,0.48000,,
365,0.16000,,
366,0.24000,,
367,0.00000,,
368,0.00000,,
369,0.16000,,
370,0.16000,,
371,0.00000,,
372,0.08000,,
373,0.00000,,
374,0.08000,,
375,-0.08000,,
376,0.00000,,
377,0.08000,,
378,0.00000,,
379,0.08000,,
380,0.00000,,
381,0.08000,,
382,0.00000,,
383,0.08000,,
384,0.08000,,
385,-0.08000,,
386,0.08000,,
387,-0.08000,,
388,-0.08000,,
389,0.08000,,
390,-0.08000,,
391,0.08000,,
392,-0.08000,,
393,0.08000,,
394,0.08000,,
395,-0.08000,,
396,0.08000,,
397,-0.08000,,
398,-0.08000,,
399,0.00000,,
400,-0.08000,,
401,0.00000,,
402,-0.08000,,
403,0.08000,,
404,-0.08000,,
405,0.00000,,
406,-0.08000,,
407,0.08000,,
408,-0.08000,,
409,0.08000,,
410,-0.08000,,
411,0.00000,,
412,0.00000,,
413,-0.08000,,
414,-0.08000,,
415,0.00000,,
416,-0.08000,,
417,0.08000,,
418,0.08000,,
419,-0.08000,,
420,-0.08000,,
421,0.08000,,
422,-0.08000,,
423,0.00000,,
424,-0.08000,,
425,0.08000,,
426,0.08000,,
427,-0.08000,,
428,0.00000,,
429,0.08000,,
430,0.00000,,
431,0.08000,,
432,0.00000,,
433,0.16000,,
434,0.16000,,
435,-0.08000,,
436,-0.08000,,
437,0.08000,,
438,-0.08000,,
439,0.08000,,
440,0.08000,,
441,-0.08000,,
442,0.08000,,
443,-0.08000,,
444,0.08000,,
445,-0.08000,,
446,0.08000,,
447,-0.08000,,
448,0.08000,,
449,-0.08000,,
450,-0.08000,,
451,0.08000,,
452,-0.08000,,
453,0.16000,,
454,-0.08000,,
455,0.16000,,
456,0.08000,,
457,-0.08000,,
458,-0.08000,,
459,0.08000,,
460,0.08000,,
461,-0.08000,,
462,-0.08000,,
463,0.08000,,
464,0.00000,,
465,-0.16000,,
466,-0.08000,,
467,-0.24000,,
468,-0.16000,,
469,-1.12000,,
470,-1.12000,,
471,-4.48000,,
472,-4.64000,,
473,-2.56000,,
474,-2.64000,,
475,-0.80000,,
476,-0.80000,,
477,0.56000,,
478,0.40000,,
479,2.64000,,
480,2.56000,,
481,4.24000,,
482,3.92000,,
483,1.36000,,
484,1.36000,,
485,0.40000,,
486,0.56000,,
487,0.16000,,
488,0.24000,,
489,0.00000,,
490,0.00000,,
491,0.16000,,
492,0.00000,,
493,0.16000,,
494,0.00000,,
495,0.08000,,
496,0.00000,,
497,0.08000,,
498,0.00000,,
499,0.08000,,
500,0.08000,,
501,0.00000,,
502,0.08000,,
503,-0.08000,,
504,0.08000,,
505,-0.08000,,
506,-0.08000,,
507,0.08000,,
508,0.00000,,
509,0.08000,,
510,0.08000,,
511,-0.08000,,
512,-0.08000,,
513,0.08000,,
514,-0.08000,,
515,0.08000,,
516,0.08000,,
517,-0.08000,,
518,-0.08000,,
519,0.08000,,
520,-0.08000,,
521,0.08000,,
522,0.08000,,
523,-0.08000,,
524,-0.08000,,
525,0.00000,,
526,-0.08000,,
527,0.08000,,
528,0.08000,,
529,-0.08000,,
530,0.08000,,
531,-0.08000,,
532,0.08000,,
533,-0.08000,,
534,-0.08000,,
535,0.08000,,
536,-0.08000,,
537,0.08000,,
538,-0.08000,,
539,0.08000,,
540,0.08000,,
541,-0.08000,,
542,0.08000,,
543,-0.08000,,
544,-0.08000,,
545,0.08000,,
546,0.08000,,
547,-0.08000,,
548,0.08000,,
549,-0.08000,,
550,0.00000,,
551,0.08000,,
552,0.08000,,
553,-0.08000,,
554,0.08000,,
555,-0.08000,,
556,0.00000,,
557,0.08000,,
558,0.08000,,
559,-0.08000,,
560,0.08000,,
561,-0.08000,,
562,0.00000,,
563,0.08000,,
564,0.08000,,
565,-0.08000,,
566,-0.08000,,
567,0.08000,,
568,0.08000,,
569,-0.08000,,
570,0.08000,,
571,-0.08000,,
572,0.08000,,
573,-0.08000,,
574,0.08000,,
575,-0.08000,,
576,0.08000,,
577,-0.08000,,
578,0.00000,,
579,0.08000,,
580,0.08000,,
581,-0.08000,,
582,0.08000,,
583,-0.08000,,
584,-0.08000,,
585,0.00000,,
586,-0.08000,,
587,0.08000,,
588,0.00000,,
589,-0.24000,,
590,-0.16000,,
591,-0.56000,,
592,-0.56000,,
593,-3.44000,,
594,-3.44000,,
595,-4.64000,,
596,-3.52000,,
597,-1.28000,,
598,-1.36000,,
599,0.08000,,
600,0.00000,,
601,1.68000,,
602,1.68000,,
603,4.16000,,
604,4.24000,,
605,2.00000,,
606,2.00000,,
607,0.56000,,
608,0.72000,,
609,0.24000,,
610,0.32000,,
611,0.08000,,
612,0.16000,,
613,0.00000,,
614,0.00000,,
615,0.16000,,
616,0.00000,,
617,0.16000,,
618,0.00000,,
619,0.16000,,
620,0.00000,,
621,0.08000,,
622,0.08000,,
623,-0.08000,,
624,-0.08000,,
625,0.08000,,
626,-0.08000,,
627,0.08000,,
628,0.08000,,
629,-0.08000,,
630,0.08000,,
631,-0.08000,,
632,-0.08000,,
633,0.08000,,
634,0.08000,,
635,-0.08000,,
636,0.08000,,
637,-0.08000,,
638,-0.08000,,
639,0.08000,,
640,0.08000,,
641,-0.08000,,
642,0.08000,,
643,-0.08000,,
644,-0.08000,,
645,0.08000,,
646,-0.08000,,
647,0.00000,,
648,-0.08000,,
649,0.08000,,
650,0.08000,,
651,-0.08000,,
652,0.08000,,
653,-0.08000,,
654,0.08000,,
655,-0.08000,,
656,-0.08000,,
657,0.08000,,
658,0.08000,,
659,-0.08000,,
660,-0.08000,,
661,0.08000,,
662,0.08000,,
663,0.00000,,
664,0.00000,,
665,0.08000,,
666,0.08000,,
667,-0.08000,,
668,0.08000,,
669,-0.08000,,
670,0.00000,,
671,0.08000,,
672,0.00000,,
673,0.08000,,
674,0.08000,,
675,-0.08000,,
676,0.08000,,
677,-0.08000,,
678,0.08000,,
679,-0.08000,,
680,0.00000,,
681,0.08000,,
682,0.08000,,
683,-0.08000,,
684,-0.08000,,
685,0.08000,,
686,0.08000,,
687,-0.08000,,
688,0.08000,,
689,-0.08000,,
690,0.08000,,
691,-0.08000,,
692,-0.08000,,
693,0.08000,,
694,0.08000,,
695,-0.08000,,
696,0.08000,,
697,-0.08000,,
698,0.08000,,
699,0.00000,,
700,0.08000,,
701,-0.08000,,
702,0.08000,,
703,-0.08000,,
704,0.08000,,
705,-0.08000,,
706,-0.08000,,
707,0.08000,,
708,-0.08000,,
709,0.08000,,
710,0.00000,,
711,-0.16000,,
712,-0.08000,,
713,-0.40000,,
714,-0.32000,,
715,-2.24000,,
716,-2.24000,,
717,-4.72000,,
718,-4.48000,,
719,-1.84000,,
720,-1.92000,,
721,-0.32000,,
722,-0.40000,,
723,1.04000,,
724,1.04000,,
725,3.68000,,
726,4.08000,,
727,2.88000,,
728,3.04000,,
729,0.80000,,
730,0.96000,,
731,0.32000,,
732,0.40000,,
733,0.08000,,
734,0.24000,,
735,0.00000,,
736,0.00000,,
737,0.16000,,
738,0.16000,,
739,0.00000,,
740,0.08000,,
741,0.00000,,
742,0.08000,,
743,-0.08000,,
744,0.00000,,
745,0.08000,,
746,0.08000,,
747,-0.08000,,
748,0.00000,,
749,0.08000,,
750,0.00000,,
751,0.08000,,
752,0.08000,,
753,-0.08000,,
754,-0.08000,,
755,0.16000,,
756,-0.08000,,
757,0.08000,,
758,-0.08000,,
759,0.08000,,
760,0.08000,,
761,-0.08000,,
762,0.08000,,
763,-0.08000,,
764,-0.08000,,
765,0.08000,,
766,-0.08000,,
767,0.08000,,
768,-0.08000,,
769,0.08000,,
770,-0.08000,,
771,0.08000,,
772,-0.08000,,
773,0.08000,,
774,-0.08000,,
775,0.08000,,
776,-0.08000,,
777,0.08000,,
778,-0.08000,,
779,0.08000,,
780,-0.08000,,
781,0.08000,,
782,-0.08000,,
783,0.08000,,
784,0.08000,,
785,-0.08000,,
786,0.08000,,
787,-0.08000,,
788,-0.08000,,
789,0.08000,,
790,0.08000,,
791,-0.08000,,
792,0.08000,,
793,-0.08000,,
794,0.08000,,
795,-0.08000,,
796,0.00000,,
797,0.08000,,
798,0.00000,,
799,0.08000,,
800,0.00000,,
801,0.08000,,
802,-0.08000,,
803,0.16000,,
804,-0.08000,,
805,0.08000,,
806,0.08000,,
807,-0.08000,,
808,-0.08000,,
809,0.08000,,
810,0.00000,,
811,0.08000,,
812,0.00000,,
813,0.08000,,
814,0.08000,,
815,-0.08000,,
816,-0.08000,,
817,0.08000,,
818,-0.08000,,
819,0.08000,,
820,0.00000,,
821,0.08000,,
822,0.00000,,
823,0.08000,,
824,0.08000,,
825,-0.08000,,
826,0.08000,,
827,-0.08000,,
828,-0.08000,,
829,0.08000,,
830,0.08000,,
831,-0.08000,,
832,0.00000,,
833,-0.16000,,
834,-0.08000,,
835,-0.32000,,
836,-0.24000,,
837,-1.84000,,
838,-1.76000,,
839,-4.64000,,
840,-4.56000,,
841,-2.08000,,
842,-2.16000,,
843,-0.48000,,
844,-0.56000,,
845,0.88000,,
846,0.80000,,
847,3.36000,,
848,3.36000,,
849,4.16000,,
850,3.44000,,
851,0.96000,,
852,1.12000,,
853,0.32000,,
854,0.48000,,
855,0.08000,,
856,0.24000,,
857,0.00000,,
858,0.00000,,
859,0.16000,,
860,0.00000,,
861,0.16000,,
862,0.00000,,
863,0.16000,,
864,0.08000,,
865,-0.08000,,
866,0.08000,,
867,-0.08000,,
868,0.08000,,
869,-0.08000,,
870,0.00000,,
871,0.08000,,
872,0.08000,,
873,-0.08000,,
874,-0.08000,,
875,0.08000,,
876,0.08000,,
877,-0.08000,,
878,0.08000,,
879,-0.08000,,
880,-0.08000,,
881,0.08000,,
882,-0.08000,,
883,0.16000,,
884,0.08000,,
885,-0.08000,,
886,-0.08000,,
887,0.08000,,
888,-0.08000,,
889,0.08000,,
890,-0.08000,,
891,0.08000,,
892,0.08000,,
893,-0.08000,,
894,-0.08000,,
895,0.08000,,
896,0.08000,,
897,-0.08000,,
898,0.08000,,
899,-0.08000,,
900,0.08000,,
901,-0.08000,,
902,0.08000,,
903,-0.08000,,
904,-0.08000,,
905,0.08000,,
906,0.08000,,
907,-0.08000,,
908,0.08000,,
909,0.00000,,
910,0.08000,,
911,-0.08000,,
912,0.08000,,
913,-0.08000,,
914,0.08000,,
915,0.00000,,
916,0.08000,,
917,0.00000,,
918,0.00000,,
919,0.08000,,
920,0.00000,,
921,0.08000,,
922,0.08000,,
923,-0.08000,,
924,-0.08000,,
925,0.08000,,
926,-0.08000,,
927,0.08000,,
928,-0.08000,,
929,0.08000,,
930,0.08000,,
931,-0.08000,,
932,0.08000,,
933,-0.08000,,
934,-0.08000,,
935,0.08000,,
936,-0.08000,,
937,0.08000,,
938,0.08000,,
939,-0.08000,,
940,0.08000,,
941,-0.08000,,
942,0.08000,,
943,-0.08000,,
944,0.00000,,
945,0.16000,,
946,0.08000,,
947,-0.08000,,
948,0.08000,,
949,-0.08000,,
950,-0.08000,,
951,0.08000,,
952,-0.08000,,
953,0.08000,,
954,0.08000,,
955,-0.16000,,
956,0.00000,,
957,-0.24000,,
958,-0.16000,,
959,-0.96000,,
960,-0.96000,,
961,-4.24000,,
962,-4.64000,,
963,-2.80000,,
964,-2.80000,,
965,-0.88000,,
966,-0.96000,,
967,0.40000,,
968,0.32000,,
969,2.32000,,
970,2.24000,,
971,4.24000,,
972,4.00000,,
973,1.44000,,
974,1.52000,,
975,0.48000,,
976,0.56000,,
977,0.16000,,
978,0.32000,,
979,0.08000,,
980,0.16000,,
981,0.00000,,
982,0.00000,,
983,0.16000,,
984,0.00000,,
985,0.16000,,
986,0.00000,,
987,0.16000,,
988,0.08000,,
989,0.00000,,
990,0.00000,,
991,0.08000,,
992,0.08000,,
993,0.00000,,
994,0.00000,,
995,0.08000,,
996,0.08000,,
997,-0.08000,,
998,-0.08000,,
999,0.08000,,
1000,0.08000,,
1001,-0.08000,,
1002,0.08000,,
1003,-0.08000,,
1004,-0.08000,,
1005,0.08000,,
1006,-0.08000,,
1007,0.08000,,
1008,0.08000,,
1009,-0.08000,,
1010,-0.08000,,
1011,0.08000,,
1012,0.08000,,
1013,-0.08000,,
1014,-0.08000,,
1015,0.08000,,
1016,-0.08000,,
1017,0.00000,,
1018,-0.08000,,
1019,0.08000,,
1020,0.08000,,
1021,-0.08000,,
1022,0.08000,,
1023,-0.08000,,
1024,-0.08000,,
1025,0.08000,,
1026,-0.08000,,
1027,0.00000,,
1028,-0.08000,,
1029,0.08000,,
1030,0.08000,,
1031,-0.08000,,
1032,0.08000,,
1033,-0.08000,,
1034,0.08000,,
1035,-0.08000,,
1036,0.08000,,
1037,-0.08000,,
1038,0.08000,,
1039,-0.08000,,
1040,0.08000,,
1041,-0.08000,,
1042,0.08000,,
1043,-0.08000,,
1044,0.08000,,
1045,-0.08000,,
1046,-0.08000,,
1047,0.08000,,
1048,0.00000,,
1049,0.08000,,
1050,0.08000,,
1051,-0.08000,,
1052,0.08000,,
1053,-0.08000,,
1054,0.00000,,
1055,0.08000,,
1056,0.08000,,
1057,0.00000,,
1058,0.08000,,
1059,-0.08000,,
1060,0.00000,,
1061,0.08000,,
1062,0.00000,,
1063,0.08000,,
1064,0.00000,,
1065,0.08000,,
1066,0.08000,,
1067,-0.08000,,
1068,0.08000,,
1069,0.00000,,
1070,0.08000,,
1071,-0.08000,,
1072,0.08000,,
1073,-0.08000,,
1074,0.00000,,
1075,-0.08000,,
1076,-0.08000,,
1077,0.08000,,
1078,0.00000,,
1079,-0.24000,,
1080,-0.08000,,
1081,-0.48000,,
1082,-0.40000,,
1083,-2.96000,,
1084,-2.96000,,
1085,-4.72000,,
1086,-4.00000,,
1087,-1.52000,,
1088,-1.60000,,
1089,-0.08000,,
1090,-0.16000,,
1091,1.36000,,
1092,1.28000,,
1093,4.00000,,
1094,4.16000,,
1095,2.32000,,
1096,2.48000,,
1097,0.64000,,
1098,0.80000,,
1099,0.24000,,
1100,0.32000,,
1101,0.08000,,
1102,0.24000,,
1103,0.00000,,
1104,0.16000,,
1105,0.00000,,
1106,0.16000,,
1107,-0.08000,,
1108,0.00000,,
1109,0.08000,,
1110,0.00000,,
1111,0.08000,,
1112,0.08000,,
1113,0.00000,,
1114,0.08000,,
1115,-0.08000,,
1116,-0.08000,,
1117,0.08000,,
1118,0.08000,,
1119,-0.08000,,
1120,0.08000,,
1121,-0.08000,,
1122,0.08000,,
1123,-0.08000,,
1124,0.08000,,
1125,-0.08000,,
1126,-0.08000,,
1127,0.08000,,
1128,-0.08000,,
1129,0.08000,,
1130,-0.08000,,
1131,0.08000,,
1132,-0.08000,,
1133,0.08000,,
1134,-0.08000,,
1135,0.00000,,
1136,-0.08000,,
1137,0.08000,,
1138,-0.08000,,
1139,0.08000,,
1140,-0.08000,,
1141,0.00000,,
1142,-0.08000,,
1143,0.08000,,
1144,-0.08000,,
1145,0.08000,,
1146,-0.08000,,
1147,0.08000,,
1148,-0.08000,,
1149,0.08000,,
1150,-0.08000,,
1151,0.08000,,
1152,0.08000,,
1153,-0.08000,,
1154,0.08000,,
1155,0.00000,,
1156,0.08000,,
1157,-0.08000,,
1158,0.08000,,
1159,-0.08000,,
1160,0.08000,,
1161,-0.08000,,
1162,0.00000,,
1163,0.16000,,
1164,0.00000,,
1165,0.08000,,
1166,0.00000,,
1167,0.08000,,
1168,0.08000,,
1169,0.00000,,
1170,0.00000,,
1171,0.08000,,
1172,0.08000,,
1173,-0.08000,,
1174,0.08000,,
1175,-0.08000,,
1176,0.08000,,
1177,-0.08000,,
1178,0.00000,,
1179,0.08000,,
1180,0.08000,,
1181,0.00000,,
1182,0.08000,,
1183,-0.08000,,
1184,0.08000,,
1185,-0.08000,,
1186,0.08000,,
1187,-0.08000,,
1188,0.00000,,
1189,0.08000,,
1190,0.08000,,
1191,-0.08000,,
1192,0.08000,,
1193,-0.08000,,
1194,0.08000,,
1195,-0.08000,,
1196,0.08000,,
1197,-0.08000,,
1198,0.08000,,
1199,-0.16000,,
